%YAML 1.1
%TAG !u! tag:unity3d.com,2011:
--- !u!114 &11400000
MonoBehaviour:
  m_ObjectHideFlags: 0
  m_CorrespondingSourceObject: {fileID: 0}
  m_PrefabInstance: {fileID: 0}
  m_PrefabAsset: {fileID: 0}
  m_GameObject: {fileID: 0}
  m_Enabled: 1
  m_EditorHideFlags: 0
  m_Script: {fileID: 11500000, guid: 9dec5fdb25a67754d80065f4c9b5059a, type: 3}
  m_Name: CharacterPalette
  m_EditorClassIdentifier: 
  PlayerCharacterPrefab: {fileID: 81273304174355731, guid: 208e29c1de1c1744096243e90d8aba7b,
    type: 3}
