%YAML 1.1
%TAG !u! tag:unity3d.com,2011:
--- !u!114 &11400000
MonoBehaviour:
  m_ObjectHideFlags: 0
  m_CorrespondingSourceObject: {fileID: 0}
  m_PrefabInstance: {fileID: 0}
  m_PrefabAsset: {fileID: 0}
  m_GameObject: {fileID: 0}
  m_Enabled: 1
  m_EditorHideFlags: 0
  m_Script: {fileID: 11500000, guid: 3b4aa6a1874862140a79527a000de48a, type: 3}
  m_Name: PrototypeTilePalette
  m_EditorClassIdentifier: 
  TileScale: 2
  GroundTilePrefab: {fileID: 3198990272439121910, guid: 4452a1be690b5d04f992ce2af07ce99f,
    type: 3}
  WallBarPrefab: {fileID: -5592653609035150694, guid: 6aee7e82e3278844ebfff01829ee5dac,
    type: 3}
  WallCornerPrefab: {fileID: -5978113654519273380, guid: 9682380c3b9274e46a8619b9c5f3a632,
    type: 3}
  WallTPrefab: {fileID: 4470938584571232395, guid: b75a87dc1e9bc104bb5b32b1bfbd2aee,
    type: 3}
  WallXPrefab: {fileID: 8730128984779081806, guid: 38acb4d404f8bfa45bcf448908db5013,
    type: 3}
